module gitlab.com/deepcypher/darklantern

go 1.18

require (
	github.com/google/go-cmp v0.5.9
	github.com/ldsec/lattigo/v2 v2.4.0
)

require (
	golang.org/x/crypto v0.0.0-20210921155107-089bfa567519 // indirect
	golang.org/x/sys v0.0.0-20220114195835-da31bd327af9 // indirect
	golang.org/x/xerrors v0.0.0-20200804184101-5ec99f83aff1 // indirect
)
